<svg width="338" height="442" viewBox="0 0 338 442" fill="none" xmlns="http://www.w3.org/2000/svg">
<path d="M2.5 44.5L86.6163 17.3237C117.148 7.4596 150.215 22.1173 163.411 51.3639L184 97" stroke="#0668E3" stroke-width="4"/>
<path fill-rule="evenodd" clip-rule="evenodd" d="M0 43L299.257 122.192C320.642 127.851 333.373 149.794 327.673 171.168L265.825 403.085C260.105 424.534 238.013 437.223 216.604 431.356L0 372" fill="url(#paint0_linear)"/>
<defs>
<linearGradient id="paint0_linear" x1="-383.478" y1="599.141" x2="353.137" y2="688.23" gradientUnits="userSpaceOnUse">
<stop stop-color="#F6FAFF"/>
<stop offset="1" stop-color="#F6FAFF"/>
</linearGradient>
</defs>
</svg>
