<svg width="113" height="110" viewBox="0 0 113 110" fill="none" xmlns="http://www.w3.org/2000/svg">
<g filter="url(#filter0_d)">
<rect x="30" y="24" width="53" height="50" rx="12" fill="#F6FAFF"/>
</g>
<path d="M65.7169 50.13C65.7296 50.1142 65.7342 50.1049 65.7342 50.1049L64.7715 49.4753C64.8458 49.359 65.1594 48.9517 66.0752 48.5983C66.7172 48.3506 67.4074 48.3388 68.2812 48.3238C68.5998 48.3184 68.9609 48.3122 69.3495 48.2933C69.6655 48.2776 69.9343 48.5248 69.9495 48.8447C69.9647 49.1647 69.7208 49.4366 69.4047 49.452C68.9982 49.4718 68.6276 49.4781 68.3007 49.4837C67.5094 49.4972 66.9377 49.507 66.4835 49.6823C65.8995 49.9076 65.7187 50.1278 65.7169 50.13Z" fill="#0668E3" stroke="#0668E3" stroke-width="0.5"/>
<path d="M52.3281 49.3174C51.6549 49.3174 51.0089 48.9914 50.5244 48.3982C50.3437 48.1768 50.3502 47.855 50.5396 47.6413C51.2902 46.7945 51.3613 45.7077 51.413 44.9142C51.4496 44.3544 51.4784 43.9124 51.7384 43.6087C52.0586 43.2347 52.4963 42.9645 53.0031 42.6516C53.3355 42.4465 53.7123 42.2138 54.1285 41.9101C54.4851 41.65 54.7823 41.3834 55.0697 41.1257C55.6106 40.6405 56.0778 40.2215 56.6838 40.1074C58.1803 39.8258 61.2696 40.3786 64.2049 41.4529C64.6812 41.5599 65.4847 41.1735 66.4978 40.6857C66.8747 40.5043 67.3019 40.2986 67.7662 40.0921C68.0557 39.9632 68.394 40.0965 68.5215 40.3897C68.6488 40.683 68.5171 41.0252 68.2274 41.1542C67.7788 41.3536 67.3597 41.5554 66.99 41.7334C65.7027 42.3531 64.7724 42.801 63.895 42.5705C63.8776 42.5659 63.8604 42.5605 63.8435 42.5543C60.7536 41.4193 58.0081 41.038 56.8934 41.2479C56.6 41.3032 56.2601 41.6081 55.8298 41.994C55.5356 42.2578 55.2021 42.5569 54.7987 42.8512C54.3467 43.181 53.95 43.4259 53.6 43.642C53.1733 43.9054 52.8332 44.1154 52.6271 44.3428C52.5918 44.4517 52.5716 44.7613 52.5566 44.9906C52.5049 45.7824 52.4302 46.927 51.739 47.9663C51.9246 48.092 52.1642 48.185 52.4477 48.1499C53.1013 48.0685 53.7909 47.3378 54.3945 46.0892C54.4672 45.8257 54.7334 45.7077 55.054 45.5656C55.2351 45.4853 55.4869 45.3765 55.8022 45.2422C56.3431 45.0118 56.8843 44.786 56.8843 44.786C57.1769 44.6641 57.512 44.8051 57.6325 45.1012C57.7531 45.3973 57.6137 45.7363 57.3211 45.8585C56.5588 46.1765 55.7171 46.5348 55.3806 46.6876C54.3948 48.6775 53.3226 49.2096 52.5876 49.3012C52.5008 49.3121 52.4142 49.3174 52.3281 49.3174Z" fill="#0668E3" stroke="#0668E3" stroke-width="0.5"/>
<path d="M63.6006 52.6656C63.116 52.6656 62.5629 52.5862 61.9383 52.4016C60.2315 51.8971 59.1426 51.1561 59.0971 51.1248C58.8353 50.9448 58.7672 50.584 58.9451 50.3191C59.1228 50.0543 59.4785 49.9852 59.7405 50.1648C59.7564 50.1756 60.7415 50.8394 62.2595 51.288C63.8486 51.7579 64.8366 51.3812 65.0819 50.8327C65.1155 50.7578 65.1993 50.5218 65.0262 50.3451C61.4817 49.857 60.324 48.5307 59.3913 47.4622C58.7431 46.7195 58.2311 46.133 56.9941 45.892C56.6834 45.8313 56.4799 45.5273 56.5397 45.2127C56.5996 44.8982 56.9001 44.6929 57.2108 44.7528C58.8314 45.0686 59.5527 45.895 60.2503 46.6941C61.1537 47.7291 62.0879 48.7994 65.3246 49.2149C65.4083 49.2256 65.4887 49.2549 65.5598 49.3007C66.2299 49.7317 66.4628 50.5583 66.1262 51.3111C65.8117 52.014 64.9879 52.6656 63.6006 52.6656Z" fill="#0668E3" stroke="#0668E3" stroke-width="0.5"/>
<path d="M62.1744 55.0271C61.8907 55.0271 61.5832 54.9893 61.2522 54.9046C59.3155 54.4088 57.8084 53.3045 57.7451 53.2577C57.4896 53.0687 57.4339 52.7057 57.6207 52.4471C57.8075 52.1887 58.1656 52.1323 58.4211 52.3209C58.4349 52.331 59.8191 53.3412 61.5332 53.78C62.4818 54.0227 63.0754 53.7116 63.3146 53.3394C63.4858 53.0731 63.4849 52.7813 63.3125 52.5589C63.1171 52.3068 63.1605 51.9422 63.4095 51.7444C63.6586 51.5468 64.0188 51.5907 64.2141 51.8426C64.6889 52.4551 64.713 53.2908 64.2755 53.9718C63.9185 54.5275 63.2056 55.0271 62.1744 55.0271Z" fill="#0668E3" stroke="#0668E3" stroke-width="0.5"/>
<path d="M60.1227 56.7984C59.9436 56.7984 59.7619 56.78 59.5802 56.7425C58.405 56.4996 56.9838 55.7001 56.9239 55.6661C56.6476 55.5097 56.5489 55.1563 56.7034 54.8768C56.8579 54.5972 57.2068 54.4973 57.4831 54.6536C57.4962 54.661 58.8103 55.3995 59.8095 55.6059C60.2972 55.7067 60.7771 55.5675 61.0925 55.2336C61.2896 55.0249 61.3874 54.7711 61.3417 54.5867C61.2645 54.276 61.4508 53.9609 61.7579 53.8829C62.0643 53.8048 62.3762 53.9933 62.4533 54.3041C62.597 54.8831 62.398 55.5303 61.9209 56.0353C61.4537 56.5298 60.8072 56.7984 60.1227 56.7984Z" fill="#0668E3" stroke="#0668E3" stroke-width="0.5"/>
<path d="M57.5265 57.7628C56.637 57.7628 55.6081 57.4427 54.7253 56.8518C54.4613 56.6751 54.3888 56.3152 54.5634 56.048C54.7381 55.7808 55.0935 55.7074 55.3576 55.8841C56.3039 56.5175 57.5534 56.7798 58.2024 56.4813C58.435 56.3743 58.554 56.2111 58.5882 55.9522C58.6303 55.6346 58.9191 55.4112 59.2323 55.4543C59.5459 55.4969 59.7662 55.7887 59.7242 56.1062C59.6379 56.758 59.2659 57.2662 58.6767 57.5374C58.3461 57.6895 57.9522 57.7628 57.5265 57.7628Z" fill="#0668E3" stroke="#0668E3" stroke-width="0.5"/>
<path d="M46.4122 50.7697C46.2603 50.7697 46.1087 50.709 45.996 50.5886C45.292 49.8362 44.5595 49.339 43.3834 48.8151C43.0937 48.686 42.9622 48.3438 43.0897 48.0505C43.2173 47.7573 43.5555 47.6242 43.8451 47.7533C45.1562 48.3373 46.0204 48.9277 46.8282 49.7909C47.0457 50.0235 47.036 50.3906 46.8061 50.6109C46.6954 50.717 46.5536 50.7697 46.4122 50.7697Z" fill="#0668E3" stroke="#0668E3" stroke-width="0.5"/>
<path d="M50.1603 42.6057C49.1061 42.6057 47.9176 41.955 46.5229 41.123C46.2503 40.9603 46.1595 40.6048 46.3202 40.3288C46.4809 40.0528 46.8323 39.961 47.1049 40.1236C48.4456 40.9234 49.7127 41.6236 50.481 41.4032C51.9631 40.9792 54.6304 40.3475 55.8417 40.8829C56.1318 41.0111 56.2643 41.353 56.1376 41.6466C56.0109 41.9401 55.673 42.0743 55.3831 41.9461C54.9142 41.7388 53.4308 41.7647 50.7928 42.5196C50.5872 42.5783 50.3765 42.6057 50.1603 42.6057Z" fill="#0668E3" stroke="#0668E3" stroke-width="0.5"/>
<path d="M54.0503 57.3875C53.9832 57.3875 53.915 57.3844 53.846 57.3781C52.9496 57.2967 52.2619 56.7134 52.1735 55.9596C52.1362 55.6416 52.3607 55.3531 52.6751 55.3153C52.9894 55.2785 53.2744 55.5048 53.3117 55.823C53.3336 56.0102 53.6252 56.1934 53.9484 56.2227C54.1339 56.2393 54.58 56.2283 54.7209 55.7628C54.8436 55.3573 54.7932 54.9894 54.5925 54.8254C54.42 54.6843 54.1366 54.708 53.8148 54.8899C53.5387 55.046 53.1894 54.946 53.035 54.6664C52.8807 54.3867 52.9795 54.0334 53.2559 53.8771C53.9962 53.4586 54.7651 53.4755 55.3125 53.9227C55.8881 54.3931 56.0813 55.2283 55.8169 56.1023C55.5758 56.899 54.8942 57.3875 54.0503 57.3875Z" fill="#0668E3" stroke="#0668E3" stroke-width="0.5"/>
<path fill-rule="evenodd" clip-rule="evenodd" d="M45.5684 52.1287C45.8988 52.7125 46.4993 53.0873 47.1018 53.0873L47.1178 53.0872C48.2314 53.0749 49.1031 52.5033 49.5724 51.4777C49.836 50.9014 49.7615 50.2559 49.373 49.751C48.9221 49.1652 48.163 48.8926 47.391 49.04C46.6129 49.1885 45.9999 49.632 45.5688 50.358C45.2474 50.8995 45.2472 51.5614 45.5684 52.1287ZM47.6035 50.1799C47.6723 50.1667 47.7382 50.1607 47.8008 50.1607C48.1175 50.1607 48.3528 50.3131 48.4687 50.4639C48.5558 50.5771 48.6376 50.7602 48.5323 50.9902C48.2472 51.6133 47.7804 51.9198 47.1052 51.9272H47.1015C46.9122 51.9272 46.6863 51.7701 46.5628 51.552C46.4814 51.4082 46.4132 51.1879 46.5512 50.9555C46.8138 50.5133 47.1481 50.2669 47.6035 50.1799Z" fill="#0668E3"/>
<path d="M47.1018 53.0873V53.3373L47.1026 53.3373L47.1018 53.0873ZM45.5684 52.1287L45.786 52.0056L45.7859 52.0055L45.5684 52.1287ZM47.1178 53.0872L47.1186 53.3372L47.1206 53.3372L47.1178 53.0872ZM49.5724 51.4777L49.7998 51.5818L49.7998 51.5817L49.5724 51.4777ZM49.373 49.751L49.5711 49.5986L49.5711 49.5985L49.373 49.751ZM47.391 49.04L47.4379 49.2856L47.4379 49.2856L47.391 49.04ZM45.5688 50.358L45.3539 50.2304L45.3539 50.2304L45.5688 50.358ZM47.6035 50.1799L47.6504 50.4254L47.6504 50.4254L47.6035 50.1799ZM48.4687 50.4639L48.2705 50.6163L48.2706 50.6163L48.4687 50.4639ZM48.5323 50.9902L48.305 50.8861L48.3049 50.8862L48.5323 50.9902ZM47.1052 51.9272V52.1772L47.108 52.1772L47.1052 51.9272ZM46.5628 51.552L46.3452 51.6751L46.3452 51.6752L46.5628 51.552ZM46.5512 50.9555L46.7662 51.0831L46.7662 51.0831L46.5512 50.9555ZM47.1018 52.8373C46.6009 52.8373 46.078 52.5215 45.786 52.0056L45.3508 52.2519C45.7197 52.9035 46.3977 53.3373 47.1018 53.3373V52.8373ZM47.117 52.8372L47.101 52.8373L47.1026 53.3373L47.1186 53.3372L47.117 52.8372ZM49.3451 51.3737C48.9154 52.3126 48.1302 52.826 47.115 52.8372L47.1206 53.3372C48.3325 53.3238 49.2908 52.6939 49.7998 51.5818L49.3451 51.3737ZM49.1749 49.9035C49.5072 50.3354 49.5699 50.8822 49.3451 51.3738L49.7998 51.5817C50.1022 50.9205 50.0158 50.1765 49.5711 49.5986L49.1749 49.9035ZM47.4379 49.2856C48.1244 49.1545 48.7859 49.3981 49.1749 49.9035L49.5711 49.5985C49.0583 48.9323 48.2015 48.6307 47.3442 48.7944L47.4379 49.2856ZM45.7838 50.4856C46.181 49.8166 46.7352 49.4197 47.4379 49.2856L47.3442 48.7944C46.4906 48.9574 45.8187 49.4474 45.3539 50.2304L45.7838 50.4856ZM45.7859 52.0055C45.507 51.5128 45.5101 50.9467 45.7838 50.4856L45.3539 50.2304C44.9847 50.8522 44.9874 51.61 45.3508 52.2519L45.7859 52.0055ZM47.8008 49.9107C47.7222 49.9107 47.6406 49.9182 47.5565 49.9343L47.6504 50.4254C47.704 50.4152 47.7541 50.4107 47.8008 50.4107V49.9107ZM48.6669 50.3116C48.5058 50.102 48.1986 49.9107 47.8008 49.9107V50.4107C48.0364 50.4107 48.1997 50.5242 48.2705 50.6163L48.6669 50.3116ZM48.7596 51.0943C48.9168 50.7509 48.7878 50.4688 48.6669 50.3115L48.2706 50.6163C48.2984 50.6525 48.3193 50.6923 48.3277 50.7335C48.3353 50.7706 48.3353 50.8198 48.305 50.8861L48.7596 51.0943ZM47.108 52.1772C47.4837 52.1731 47.8182 52.0851 48.1023 51.8986C48.3861 51.7122 48.6018 51.4391 48.7596 51.0942L48.3049 50.8862C48.1777 51.1643 48.0175 51.3561 47.8279 51.4806C47.6385 51.6049 47.402 51.6739 47.1025 51.6772L47.108 52.1772ZM47.1015 52.1772H47.1052V51.6772H47.1015V52.1772ZM46.3452 51.6752C46.4257 51.8173 46.5388 51.939 46.6646 52.0266C46.7881 52.1125 46.941 52.1772 47.1015 52.1772V51.6772C47.0727 51.6772 47.018 51.6633 46.9503 51.6162C46.885 51.5707 46.8233 51.5048 46.7803 51.4288L46.3452 51.6752ZM46.3363 50.8278C46.1333 51.1696 46.242 51.4927 46.3452 51.6751L46.7804 51.4289C46.7208 51.3236 46.6932 51.2061 46.7662 51.0831L46.3363 50.8278ZM47.5566 49.9343C47.0227 50.0363 46.6309 50.3316 46.3363 50.8278L46.7662 51.0831C46.9967 50.6949 47.2735 50.4974 47.6504 50.4254L47.5566 49.9343Z" fill="#0668E3"/>
<path d="M51.5617 56.8415C51.1569 56.8415 50.7395 56.732 50.3855 56.5097C49.6644 56.0567 49.3793 55.266 49.623 54.3946C49.7091 54.0864 50.0259 53.9071 50.3304 53.9945C50.635 54.0816 50.8119 54.4022 50.7258 54.7105C50.6221 55.0812 50.7085 55.3472 50.9899 55.524C51.3457 55.7475 51.8434 55.7175 52.0341 55.5428C52.5205 55.0971 52.8219 54.4888 52.9299 53.7345C52.9739 53.4269 52.8286 53.084 52.5842 52.9191C52.4055 52.7985 52.2159 52.802 52.0044 52.93C51.7327 53.0943 51.3808 53.0048 51.2185 52.7298C51.0561 52.4548 51.1448 52.0987 51.4164 51.9343C52.011 51.5745 52.6683 51.5818 53.22 51.9539C53.8325 52.3672 54.1718 53.1497 54.0642 53.9009C53.9169 54.9295 53.4927 55.7712 52.8033 56.4029C52.486 56.6936 52.0323 56.8415 51.5617 56.8415Z" fill="#0668E3" stroke="#0668E3" stroke-width="0.5"/>
<path fill-rule="evenodd" clip-rule="evenodd" d="M48.1212 54.8294C48.5278 55.2012 48.9811 55.3576 49.4112 55.3576C49.8947 55.3576 50.3488 55.1599 50.6743 54.8485C51.2847 54.2643 51.6467 53.659 51.911 53.2171L51.9611 53.1336C52.4481 52.3231 52.3673 51.399 51.755 50.7793C51.1755 50.1929 50.3088 50.0926 49.5979 50.5303C48.8971 50.9618 48.4406 51.4636 47.931 52.1335C47.581 52.5936 47.4287 53.1088 47.4905 53.6233C47.5452 54.079 47.7692 54.5074 48.1212 54.8294ZM48.8392 52.8412C49.2795 52.2624 49.6422 51.8609 50.1935 51.5214C50.5024 51.3313 50.784 51.4372 50.9445 51.5997C51.0316 51.6878 51.2915 52.0154 50.9817 52.5309L50.9305 52.6164L50.9304 52.6166C50.6872 53.0233 50.3845 53.5294 49.8869 54.0056C49.5177 54.3587 49.0863 54.1486 48.8896 53.9686C48.764 53.8538 48.3891 53.4329 48.8392 52.8412Z" fill="#0668E3"/>
<path d="M48.1212 54.8294L47.9525 55.0138L47.9525 55.0139L48.1212 54.8294ZM50.6743 54.8485L50.5014 54.6678L50.5014 54.6678L50.6743 54.8485ZM51.911 53.2171L51.6966 53.0885L51.6965 53.0888L51.911 53.2171ZM51.9611 53.1336L51.7468 53.0048L51.7466 53.005L51.9611 53.1336ZM51.755 50.7793L51.9329 50.6036L51.9329 50.6036L51.755 50.7793ZM49.5979 50.5303L49.4668 50.3174L49.4668 50.3175L49.5979 50.5303ZM47.931 52.1335L47.732 51.9822L47.732 51.9822L47.931 52.1335ZM47.4905 53.6233L47.7387 53.5935L47.7387 53.5934L47.4905 53.6233ZM50.1935 51.5214L50.0625 51.3085L50.0624 51.3086L50.1935 51.5214ZM48.8392 52.8412L48.6402 52.6899L48.6402 52.6899L48.8392 52.8412ZM50.9445 51.5997L50.7667 51.7754L50.7667 51.7755L50.9445 51.5997ZM50.9817 52.5309L50.7674 52.4021L50.7672 52.4025L50.9817 52.5309ZM50.9305 52.6164L51.1449 52.745L51.145 52.7448L50.9305 52.6164ZM50.9304 52.6166L50.7161 52.4879L50.7159 52.4882L50.9304 52.6166ZM49.8869 54.0056L50.0597 54.1863L50.0597 54.1862L49.8869 54.0056ZM48.8896 53.9686L49.0583 53.7842L49.0583 53.7841L48.8896 53.9686ZM49.4112 55.1076C49.0449 55.1076 48.6515 54.9755 48.2899 54.6449L47.9525 55.0139C48.4042 55.4269 48.9173 55.6076 49.4112 55.6076V55.1076ZM50.5014 54.6678C50.2202 54.937 49.8272 55.1076 49.4112 55.1076V55.6076C49.9622 55.6076 50.4774 55.3829 50.8471 55.0291L50.5014 54.6678ZM51.6965 53.0888C51.4328 53.5296 51.0854 54.1091 50.5014 54.6678L50.8471 55.0291C51.484 54.4196 51.8606 53.7884 52.1256 53.3454L51.6965 53.0888ZM51.7466 53.005L51.6966 53.0885L52.1255 53.3456L52.1755 53.2621L51.7466 53.005ZM51.5772 50.955C52.0999 51.4841 52.1821 52.2805 51.7468 53.0048L52.1754 53.2623C52.7142 52.3657 52.6346 51.3139 51.9329 50.6036L51.5772 50.955ZM49.7289 50.7432C50.3426 50.3654 51.0809 50.4528 51.5772 50.955L51.9329 50.6036C51.2702 49.933 50.2751 49.8198 49.4668 50.3174L49.7289 50.7432ZM48.13 52.2849C48.6312 51.6259 49.0658 51.1515 49.729 50.7432L49.4668 50.3175C48.7284 50.7721 48.2499 51.3013 47.732 51.9822L48.13 52.2849ZM47.7387 53.5934C47.6856 53.1511 47.8144 52.6998 48.13 52.2849L47.732 51.9822C47.3477 52.4874 47.1718 53.0664 47.2423 53.6531L47.7387 53.5934ZM48.29 54.6449C47.9802 54.3615 47.786 53.9873 47.7387 53.5935L47.2423 53.653C47.3044 54.1707 47.5582 54.6532 47.9525 55.0138L48.29 54.6449ZM50.0624 51.3086C49.4723 51.6719 49.0874 52.102 48.6402 52.6899L49.0381 52.9926C49.4715 52.4229 49.8121 52.0499 50.3246 51.7343L50.0624 51.3086ZM51.1224 51.424C50.8976 51.1965 50.4902 51.0452 50.0625 51.3085L50.3246 51.7343C50.4289 51.6701 50.5146 51.6626 50.5807 51.6744C50.6517 51.6871 50.7171 51.7252 50.7667 51.7754L51.1224 51.424ZM51.196 52.6597C51.3818 52.3505 51.4086 52.0733 51.3553 51.8476C51.304 51.6302 51.1849 51.4873 51.1223 51.424L50.7667 51.7755C50.7913 51.8003 50.8457 51.8652 50.8687 51.9624C50.8896 52.0514 50.8914 52.1958 50.7674 52.4021L51.196 52.6597ZM51.145 52.7448L51.1962 52.6593L50.7672 52.4025L50.716 52.488L51.145 52.7448ZM51.1448 52.7452L51.1449 52.745L50.7162 52.4878L50.7161 52.4879L51.1448 52.7452ZM50.0597 54.1862C50.5843 53.6843 50.9018 53.1515 51.145 52.7449L50.7159 52.4882C50.4726 52.895 50.1848 53.3745 49.714 53.825L50.0597 54.1862ZM48.7208 54.1531C48.845 54.2667 49.0441 54.3924 49.281 54.4334C49.5307 54.4765 49.8128 54.4224 50.0597 54.1863L49.7141 53.8249C49.5918 53.9419 49.4737 53.9592 49.3662 53.9407C49.2459 53.9199 49.1309 53.8505 49.0583 53.7842L48.7208 54.1531ZM48.6402 52.6899C48.3717 53.0428 48.332 53.3756 48.4074 53.65C48.4784 53.9084 48.642 54.081 48.7209 54.1532L49.0583 53.7841C49.0116 53.7415 48.9249 53.6462 48.8896 53.5175C48.8586 53.4049 48.8565 53.2313 49.0382 52.9926L48.6402 52.6899Z" fill="#0668E3"/>
<defs>
<filter id="filter0_d" x="0" y="0" width="113" height="110" filterUnits="userSpaceOnUse" color-interpolation-filters="sRGB">
<feFlood flood-opacity="0" result="BackgroundImageFix"/>
<feColorMatrix in="SourceAlpha" type="matrix" values="0 0 0 0 0 0 0 0 0 0 0 0 0 0 0 0 0 0 127 0"/>
<feOffset dy="6"/>
<feGaussianBlur stdDeviation="15"/>
<feColorMatrix type="matrix" values="0 0 0 0 0.235294 0 0 0 0 0.254902 0 0 0 0 0.305882 0 0 0 0.05 0"/>
<feBlend mode="normal" in2="BackgroundImageFix" result="effect1_dropShadow"/>
<feBlend mode="normal" in="SourceGraphic" in2="effect1_dropShadow" result="shape"/>
</filter>
</defs>
</svg>
