<svg width="73" height="70" viewBox="0 0 73 70" fill="none" xmlns="http://www.w3.org/2000/svg">
<g filter="url(#filter0_d)">
<rect x="10" y="8" width="53" height="50" rx="12" fill="#F6FAFF"/>
</g>
<rect opacity="0.01" x="47" y="46" width="22" height="22" transform="rotate(180 47 46)" fill="black"/>
<circle cx="28.6667" cy="30.4167" r="0.916667" fill="#0668E3"/>
<circle cx="28.6667" cy="35" r="0.916667" fill="#0668E3"/>
<circle cx="28.6667" cy="39.5833" r="0.916667" fill="#0668E3"/>
<rect x="31.4165" y="34.0833" width="12.8333" height="1.83333" rx="0.916667" fill="#0668E3"/>
<rect x="31.4165" y="38.6667" width="12.8333" height="1.83333" rx="0.916667" fill="#0668E3"/>
<rect x="31.4165" y="29.5" width="12.8333" height="1.83333" rx="0.916667" fill="#0668E3"/>
<defs>
<filter id="filter0_d" x="0" y="0" width="73" height="70" filterUnits="userSpaceOnUse" color-interpolation-filters="sRGB">
<feFlood flood-opacity="0" result="BackgroundImageFix"/>
<feColorMatrix in="SourceAlpha" type="matrix" values="0 0 0 0 0 0 0 0 0 0 0 0 0 0 0 0 0 0 127 0"/>
<feOffset dy="2"/>
<feGaussianBlur stdDeviation="5"/>
<feColorMatrix type="matrix" values="0 0 0 0 0.0235294 0 0 0 0 0.407843 0 0 0 0 0.890196 0 0 0 0.0467931 0"/>
<feBlend mode="normal" in2="BackgroundImageFix" result="effect1_dropShadow"/>
<feBlend mode="normal" in="SourceGraphic" in2="effect1_dropShadow" result="shape"/>
</filter>
</defs>
</svg>
